Frank-Hertz/Medicion_Cualitativo.csv

Record Length,2500,Points,-28.59999985E-3,2.79999995,,Record Length,2500,Points,-28.59999985E-3,599.999964237E-3,
Sample Interval,19.9999995E-6,s,-28.58000062E-3,2.75999999,,Sample Interval,19.9999995E-6,s,-28.58000062E-3,599.999964237E-3,
Trigger Point,1.4300001E3,Samples,-28.55999954E-3,2.75999999,,Trigger Point,1.4300001E3,Samples,-28.55999954E-3,599.999964237E-3,
,,,-28.54000032E-3,2.72000003,,,,,-28.54000032E-3,639.999985695E-3,
,,,-28.51999924E-3,2.75999999,,,,,-28.51999924E-3,599.999964237E-3,
,,,-28.50000001E-3,2.75999999,,,,,-28.50000001E-3,639.999985695E-3,
Source,CH1,,-28.47999893E-3,2.72000003,,Source,CH2,,-28.47999893E-3,639.999985695E-3,
Vertical Units,Volts,,-28.45999971E-3,2.75999999,,Vertical Units,Volts,,-28.45999971E-3,680.000007153E-3,
Vertical Scale,999.999977648E-3,,-28.44000049E-3,2.75999999,,Vertical Scale,999.999977648E-3,,-28.44000049E-3,680.000007153E-3,
Vertical Offset,0,,-28.41999941E-3,2.75999999,,Vertical Offset,0,,-28.41999941E-3,639.999985695E-3,
Horizontal Units,s,,-28.40000018E-3,2.75999999,,Horizontal Units,s,,-28.40000018E-3,639.999985695E-3,
Horizontal Scale,4.99999987E-3,,-28.37999910E-3,2.79999995,,Horizontal Scale,4.99999987E-3,,-28.37999910E-3,680.000007153E-3,
Pt Fmt,Y,,-28.35999988E-3,2.72000003,,Pt Fmt,Y,,-28.35999988E-3,719.999969006E-3,
Yzero,-2.3200000,,-28.34000066E-3,2.79999995,,Yzero,-2.3600000,,-28.34000066E-3,719.999969006E-3,
Probe Atten,1.000000,,-28.31999958E-3,2.79999995,,Probe Atten,1.000000,,-28.31999958E-3,719.999969006E-3,
,,,-28.30000035E-3,2.79999995,,,,,-28.30000035E-3,719.999969006E-3,
Note,TBS 1102B-EDU - 17:35:29   24/10/2024,,-28.27999927E-3,2.79999995,,Note,TBS 1102B-EDU - 17:35:29   24/10/2024,,-28.27999927E-3,719.999969006E-3,
,,,-28.26000005E-3,2.79999995,,,,,-28.26000005E-3,719.999969006E-3,
,,,-28.23999897E-3,2.79999995,,,,,-28.23999897E-3,719.999969006E-3,
,,,-28.21999975E-3,2.79999995,,,,,-28.21999975E-3,759.999990463E-3,
,,,-28.20000052E-3,2.79999995,,,,,-28.20000052E-3,759.999990463E-3,
,,,-28.17999944E-3,2.79999995,,,,,-28.17999944E-3,759.999990463E-3,
,,,-28.16000022E-3,2.79999995,,,,,-28.16000022E-3,759.999990463E-3,
,,,-28.13999914E-3,2.79999995,,,,,-28.13999914E-3,799.999952316E-3,
,,,-28.11999992E-3,2.83999991,,,,,-28.11999992E-3,799.999952316E-3,
,,,-28.10000069E-3,2.79999995,,,,,-28.10000069E-3,799.999952316E-3,
,,,-28.07999961E-3,2.79999995,,,,,-28.07999961E-3,839.999973774E-3,
,,,-28.06000039E-3,2.79999995,,,,,-28.06000039E-3,839.999973774E-3,
,,,-28.03999931E-3,2.79999995,,,,,-28.03999931E-3,839.999973774E-3,
,,,-28.02000009E-3,2.79999995,,,,,-28.02000009E-3,799.999952316E-3,
,,,-27.99999900E-3,2.83999991,,,,,-27.99999900E-3,839.999973774E-3,
,,,-27.97999978E-3,2.79999995,,,,,-27.97999978E-3,839.999973774E-3,
,,,-27.96000056E-3,2.79999995,,,,,-27.96000056E-3,879.999995232E-3,
,,,-27.93999948E-3,2.79999995,,,,,-27.93999948E-3,879.999995232E-3,
,,,-27.92000026E-3,2.87999988,,,,,-27.92000026E-3,839.999973774E-3,
,,,-27.89999917E-3,2.83999991,,,,,-27.89999917E-3,879.999995232E-3,
,,,-27.87999995E-3,2.79999995,,,,,-27.87999995E-3,919.999957085E-3,
,,,-27.86000073E-3,2.83999991,,,,,-27.86000073E-3,919.999957085E-3,
,,,-27.83999965E-3,2.83999991,,,,,-27.83999965E-3,919.999957085E-3,
,,,-27.82000042E-3,2.83999991,,,,,-27.82000042E-3,919.999957085E-3,
,,,-27.79999934E-3,2.87999988,,,,,-27.79999934E-3,959.999978542E-3,
,,,-27.78000012E-3,2.87999988,,,,,-27.78000012E-3,919.999957085E-3,
,,,-27.75999904E-3,2.83999991,,,,,-27.75999904E-3,959.999978542E-3,
,,,-27.73999982E-3,2.87999988,,,,,-27.73999982E-3,959.999978542E-3,
,,,-27.72000059E-3,2.79999995,,,,,-27.72000059E-3,919.999957085E-3,
,,,-27.69999951E-3,2.87999988,,,,,-27.69999951E-3,959.999978542E-3,
,,,-27.68000029E-3,2.87999988,,,,,-27.68000029E-3,959.999978542E-3,
,,,-27.65999921E-3,2.83999991,,,,,-27.65999921E-3,1.0400000,
,,,-27.63999999E-3,2.87999988,,,,,-27.63999999E-3,1.000000,
,,,-27.62000076E-3,2.87999988,,,,,-27.62000076E-3,1.000000,
,,,-27.59999968E-3,2.87999988,,,,,-27.59999968E-3,1.0400000,
,,,-27.58000046E-3,2.87999988,,,,,-27.58000046E-3,959.999978542E-3,
,,,-27.55999938E-3,2.87999988,,,,,-27.55999938E-3,1.000000,
,,,-27.54000016E-3,2.87999988,,,,,-27.54000016E-3,1.000000,
,,,-27.51999907E-3,2.91999984,,,,,-27.51999907E-3,1.0400000,
,,,-27.49999985E-3,2.87999988,,,,,-27.49999985E-3,1.000000,
,,,-27.48000063E-3,2.87999988,,,,,-27.48000063E-3,1.0400000,
,,,-27.45999955E-3,2.87999988,,,,,-27.45999955E-3,1.0400000,
,,,-27.44000033E-3,2.91999984,,,,,-27.44000033E-3,1.0400000,
,,,-27.41999924E-3,2.87999988,,,,,-27.41999924E-3,1.0400000,
,,,-27.40000002E-3,2.91999984,,,,,-27.40000002E-3,1.0400000,
,,,-27.38000080E-3,2.96000004,,,,,-27.38000080E-3,1.0400000,
,,,-27.35999972E-3,2.91999984,,,,,-27.35999972E-3,1.0400000,
,,,-27.34000050E-3,2.91999984,,,,,-27.34000050E-3,1.0400000,
,,,-27.31999941E-3,2.87999988,,,,,-27.31999941E-3,1.0400000,
,,,-27.30000019E-3,2.87999988,,,,,-27.30000019E-3,1.0400000,
,,,-27.27999911E-3,2.91999984,,,,,-27.27999911E-3,1.0799999,
,,,-27.25999989E-3,2.91999984,,,,,-27.25999989E-3,1.0799999,
,,,-27.24000067E-3,2.91999984,,,,,-27.24000067E-3,1.0799999,
,,,-27.21999958E-3,2.96000004,,,,,-27.21999958E-3,1.0400000,
,,,-27.20000036E-3,2.96000004,,,,,-27.20000036E-3,1.0400000,
,,,-27.17999928E-3,2.91999984,,,,,-27.17999928E-3,1.0799999,
,,,-27.16000006E-3,2.91999984,,,,,-27.16000006E-3,1.0799999,
,,,-27.13999897E-3,2.96000004,,,,,-27.13999897E-3,1.0799999,
,,,-27.11999975E-3,2.96000004,,,,,-27.11999975E-3,1.0799999,
,,,-27.10000053E-3,3.00000000,,,,,-27.10000053E-3,1.0799999,
,,,-27.07999945E-3,2.96000004,,,,,-27.07999945E-3,1.0799999,
,,,-27.06000023E-3,2.96000004,,,,,-27.06000023E-3,1.1200000,
,,,-27.03999914E-3,2.96000004,,,,,-27.03999914E-3,1.0799999,
,,,-27.01999992E-3,2.91999984,,,,,-27.01999992E-3,1.0799999,
,,,-27.00000070E-3,2.96000004,,,,,-27.00000070E-3,1.0799999,
,,,-26.97999962E-3,2.96000004,,,,,-26.97999962E-3,1.0400000,
,,,-26.96000040E-3,3.00000000,,,,,-26.96000040E-3,1.0400000,
,,,-26.93999931E-3,2.96000004,,,,,-26.93999931E-3,1.1200000,
,,,-26.92000009E-3,2.96000004,,,,,-26.92000009E-3,1.0799999,
,,,-26.89999901E-3,3.00000000,,,,,-26.89999901E-3,1.0799999,
,,,-26.87999979E-3,3.00000000,,,,,-26.87999979E-3,1.0799999,
,,,-26.86000057E-3,2.96000004,,,,,-26.86000057E-3,1.0400000,
,,,-26.83999948E-3,2.96000004,,,,,-26.83999948E-3,1.0799999,
,,,-26.82000026E-3,3.00000000,,,,,-26.82000026E-3,1.0799999,
,,,-26.79999918E-3,3.00000000,,,,,-26.79999918E-3,1.0799999,
,,,-26.77999996E-3,2.96000004,,,,,-26.77999996E-3,1.0799999,
,,,-26.76000074E-3,3.00000000,,,,,-26.76000074E-3,1.0799999,
,,,-26.73999965E-3,3.00000000,,,,,-26.73999965E-3,1.0799999,
,,,-26.72000043E-3,3.03999996,,,,,-26.72000043E-3,1.0400000,
,,,-26.69999935E-3,3.00000000,,,,,-26.69999935E-3,1.0799999,
,,,-26.68000013E-3,3.03999996,,,,,-26.68000013E-3,1.0400000,
,,,-26.65999904E-3,3.03999996,,,,,-26.65999904E-3,1.0799999,
,,,-26.63999982E-3,3.03999996,,,,,-26.63999982E-3,1.0400000,
,,,-26.62000060E-3,3.03999996,,,,,-26.62000060E-3,1.0400000,
,,,-26.59999952E-3,3.03999996,,,,,-26.59999952E-3,1.0799999,
,,,-26.58000030E-3,3.00000000,,,,,-26.58000030E-3,1.0400000,
,,,-26.55999921E-3,3.03999996,,,,,-26.55999921E-3,1.0400000,
,,,-26.53999999E-3,3.03999996,,,,,-26.53999999E-3,1.0400000,
,,,-26.52000077E-3,3.03999996,,,,,-26.52000077E-3,1.0799999,
,,,-26.49999969E-3,3.03999996,,,,,-26.49999969E-3,1.0400000,
,,,-26.48000047E-3,3.03999996,,,,,-26.48000047E-3,1.0400000,
,,,-26.45999938E-3,3.03999996,,,,,-26.45999938E-3,1.0400000,
,,,-26.44000016E-3,3.03999996,,,,,-26.44000016E-3,1.0400000,
,,,-26.41999908E-3,3.03999996,,,,,-26.41999908E-3,1.0400000,
,,,-26.39999986E-3,3.03999996,,,,,-26.39999986E-3,1.0400000,
,,,-26.38000064E-3,3.03999996,,,,,-26.38000064E-3,1.0400000,
,,,-26.35999955E-3,3.07999992,,,,,-26.35999955E-3,1.0400000,
,,,-26.34000033E-3,3.07999992,,,,,-26.34000033E-3,1.000000,
,,,-26.31999925E-3,3.07999992,,,,,-26.31999925E-3,1.0400000,
,,,-26.30000003E-3,3.07999992,,,,,-26.30000003E-3,1.000000,
,,,-26.28000081E-3,3.07999992,,,,,-26.28000081E-3,1.0400000,
,,,-26.25999972E-3,3.07999992,,,,,-26.25999972E-3,1.000000,
,,,-26.24000050E-3,3.07999992,,,,,-26.24000050E-3,1.000000,
,,,-26.21999942E-3,3.11999989,,,,,-26.21999942E-3,1.000000,
,,,-26.20000020E-3,3.07999992,,,,,-26.20000020E-3,1.0400000,
,,,-26.17999911E-3,3.07999992,,,,,-26.17999911E-3,1.000000,
,,,-26.15999989E-3,3.03999996,,,,,-26.15999989E-3,1.000000,
,,,-26.14000067E-3,3.07999992,,,,,-26.14000067E-3,1.0400000,
,,,-26.11999959E-3,3.07999992,,,,,-26.11999959E-3,1.000000,
,,,-26.10000037E-3,3.07999992,,,,,-26.10000037E-3,1.000000,
,,,-26.07999928E-3,3.07999992,,,,,-26.07999928E-3,1.000000,
,,,-26.06000006E-3,3.07999992,,,,,-26.06000006E-3,1.000000,
,,,-26.03999898E-3,3.07999992,,,,,-26.03999898E-3,1.000000,
,,,-26.01999976E-3,3.11999989,,,,,-26.01999976E-3,1.0400000,
,,,-26.00000054E-3,3.07999992,,,,,-26.00000054E-3,1.000000,
,,,-25.97999945E-3,3.11999989,,,,,-25.97999945E-3,1.0400000,
,,,-25.96000023E-3,3.11999989,,,,,-25.96000023E-3,1.0400000,
,,,-25.93999915E-3,3.11999989,,,,,-25.93999915E-3,1.000000,
,,,-25.91999993E-3,3.11999989,,,,,-25.91999993E-3,1.0400000,
,,,-25.90000071E-3,3.07999992,,,,,-25.90000071E-3,1.000000,
,,,-25.87999962E-3,3.11999989,,,,,-25.87999962E-3,1.000000,
,,,-25.86000040E-3,3.15999985,,,,,-25.86000040E-3,1.0400000,
,,,-25.83999932E-3,3.11999989,,,,,-25.83999932E-3,1.000000,
,,,-25.82000010E-3,3.11999989,,,,,-25.82000010E-3,1.000000,
,,,-25.79999901E-3,3.15999985,,,,,-25.79999901E-3,1.000000,
,,,-25.77999979E-3,3.15999985,,,,,-25.77999979E-3,1.000000,
,,,-25.76000057E-3,3.15999985,,,,,-25.76000057E-3,1.0400000,
,,,-25.73999949E-3,3.11999989,,,,,-25.73999949E-3,1.0400000,
,,,-25.72000027E-3,3.11999989,,,,,-25.72000027E-3,1.0400000,
,,,-25.69999918E-3,3.11999989,,,,,-25.69999918E-3,1.0400000,
,,,-25.67999996E-3,3.19999981,,,,,-25.67999996E-3,1.0400000,
,,,-25.66000074E-3,3.15999985,,,,,-25.66000074E-3,1.0400000,
,,,-25.63999966E-3,3.15999985,,,,,-25.63999966E-3,1.0400000,
,,,-25.62000044E-3,3.15999985,,,,,-25.62000044E-3,1.0400000,
,,,-25.59999935E-3,3.19999981,,,,,-25.59999935E-3,1.0400000,
,,,-25.58000013E-3,3.19999981,,,,,-25.58000013E-3,1.0400000,
,,,-25.55999905E-3,3.15999985,,,,,-25.55999905E-3,1.0400000,
,,,-25.53999983E-3,3.19999981,,,,,-25.53999983E-3,1.0400000,
,,,-25.52000061E-3,3.19999981,,,,,-25.52000061E-3,1.0799999,
,,,-25.49999952E-3,3.19999981,,,,,-25.49999952E-3,1.0799999,
,,,-25.48000030E-3,3.19999981,,,,,-25.48000030E-3,1.0400000,
,,,-25.45999922E-3,3.15999985,,,,,-25.45999922E-3,1.0799999,
,,,-25.44000000E-3,3.19999981,,,,,-25.44000000E-3,1.0799999,
,,,-25.42000078E-3,3.19999981,,,,,-25.42000078E-3,1.1200000,
,,,-25.39999969E-3,3.19999981,,,,,-25.39999969E-3,1.1200000,
,,,-25.38000047E-3,3.15999985,,,,,-25.38000047E-3,1.1200000,
,,,-25.35999939E-3,3.19999981,,,,,-25.35999939E-3,1.1200000,
,,,-25.34000017E-3,3.24000001,,,,,-25.34000017E-3,1.1200000,
,,,-25.31999908E-3,3.19999981,,,,,-25.31999908E-3,1.1200000,
,,,-25.29999986E-3,3.19999981,,,,,-25.29999986E-3,1.1200000,
,,,-25.28000064E-3,3.19999981,,,,,-25.28000064E-3,1.1600000,
,,,-25.25999956E-3,3.19999981,,,,,-25.25999956E-3,1.1200000,
,,,-25.24000034E-3,3.24000001,,,,,-25.24000034E-3,1.1600000,
,,,-25.21999925E-3,3.24000001,,,,,-25.21999925E-3,1.1600000,
,,,-25.20000003E-3,3.19999981,,,,,-25.20000003E-3,1.1600000,
,,,-25.18000081E-3,3.24000001,,,,,-25.18000081E-3,1.1999999,
,,,-25.15999973E-3,3.24000001,,,,,-25.15999973E-3,1.1600000,
,,,-25.14000051E-3,3.27999997,,,,,-25.14000051E-3,1.1999999,
,,,-25.11999942E-3,3.19999981,,,,,-25.11999942E-3,1.1999999,
,,,-25.10000020E-3,3.24000001,,,,,-25.10000020E-3,1.1999999,
,,,-25.07999912E-3,3.24000001,,,,,-25.07999912E-3,1.2400000,
,,,-25.05999990E-3,3.27999997,,,,,-25.05999990E-3,1.2400000,
,,,-25.04000068E-3,3.24000001,,,,,-25.04000068E-3,1.2800000,
,,,-25.01999959E-3,3.19999981,,,,,-25.01999959E-3,1.2800000,
,,,-25.00000037E-3,3.27999997,,,,,-25.00000037E-3,1.2800000,
,,,-24.97999929E-3,3.27999997,,,,,-24.97999929E-3,1.2800000,
,,,-24.96000007E-3,3.27999997,,,,,-24.96000007E-3,1.3199999,
,,,-24.94000085E-3,3.27999997,,,,,-24.94000085E-3,1.3199999,
,,,-24.91999976E-3,3.27999997,,,,,-24.91999976E-3,1.3199999,
,,,-24.90000054E-3,3.27999997,,,,,-24.90000054E-3,1.3199999,
,,,-24.87999946E-3,3.27999997,,,,,-24.87999946E-3,1.3600000,
,,,-24.86000024E-3,3.27999997,,,,,-24.86000024E-3,1.3600000,
,,,-24.83999915E-3,3.27999997,,,,,-24.83999915E-3,1.3600000,
,,,-24.81999993E-3,3.27999997,,,,,-24.81999993E-3,1.4000000,
,,,-24.80000071E-3,3.27999997,,,,,-24.80000071E-3,1.4000000,
,,,-24.77999963E-3,3.24000001,,,,,-24.77999963E-3,1.4399999,
,,,-24.76000041E-3,3.27999997,,,,,-24.76000041E-3,1.4000000,
,,,-24.73999932E-3,3.27999997,,,,,-24.73999932E-3,1.4399999,
,,,-24.72000010E-3,3.35999990,,,,,-24.72000010E-3,1.4399999,
,,,-24.69999902E-3,3.27999997,,,,,-24.69999902E-3,1.4800000,
,,,-24.67999980E-3,3.31999993,,,,,-24.67999980E-3,1.4800000,
,,,-24.66000058E-3,3.31999993,,,,,-24.66000058E-3,1.4800000,
,,,-24.63999949E-3,3.31999993,,,,,-24.63999949E-3,1.5200000,
,,,-24.62000027E-3,3.31999993,,,,,-24.62000027E-3,1.5200000,
,,,-24.59999919E-3,3.35999990,,,,,-24.59999919E-3,1.5200000,
,,,-24.57999997E-3,3.31999993,,,,,-24.57999997E-3,1.5599999,
,,,-24.56000075E-3,3.35999990,,,,,-24.56000075E-3,1.5599999,
,,,-24.53999966E-3,3.35999990,,,,,-24.53999966E-3,1.5599999,
,,,-24.52000044E-3,3.31999993,,,,,-24.52000044E-3,1.5999999,
,,,-24.49999936E-3,3.31999993,,,,,-24.49999936E-3,1.5999999,
,,,-24.48000014E-3,3.35999990,,,,,-24.48000014E-3,1.5999999,
,,,-24.45999905E-3,3.35999990,,,,,-24.45999905E-3,1.6400000,
,,,-24.43999983E-3,3.31999993,,,,,-24.43999983E-3,1.6400000,
,,,-24.42000061E-3,3.31999993,,,,,-24.42000061E-3,1.6799999,
,,,-24.39999953E-3,3.31999993,,,,,-24.39999953E-3,1.6799999,
,,,-24.38000031E-3,3.27999997,,,,,-24.38000031E-3,1.6799999,
,,,-24.35999922E-3,3.35999990,,,,,-24.35999922E-3,1.6799999,
,,,-24.34000000E-3,3.35999990,,,,,-24.34000000E-3,1.6799999,
,,,-24.32000078E-3,3.31999993,,,,,-24.32000078E-3,1.7199999,
,,,-24.29999970E-3,3.35999990,,,,,-24.29999970E-3,1.7600000,
,,,-24.28000048E-3,3.35999990,,,,,-24.28000048E-3,1.7600000,
,,,-24.25999939E-3,3.35999990,,,,,-24.25999939E-3,1.7600000,
,,,-24.24000017E-3,3.39999986,,,,,-24.24000017E-3,1.7600000,
,,,-24.21999909E-3,3.39999986,,,,,-24.21999909E-3,1.7600000,
,,,-24.19999987E-3,3.39999986,,,,,-24.19999987E-3,1.7600000,
,,,-24.18000065E-3,3.39999986,,,,,-24.18000065E-3,1.8000000,
,,,-24.15999956E-3,3.35999990,,,,,-24.15999956E-3,1.8000000,
,,,-24.14000034E-3,3.35999990,,,,,-24.14000034E-3,1.8000000,
,,,-24.11999926E-3,3.39999986,,,,,-24.11999926E-3,1.8000000,
,,,-24.10000004E-3,3.39999986,,,,,-24.10000004E-3,1.8000000,
,,,-24.08000082E-3,3.39999986,,,,,-24.08000082E-3,1.8399999,
,,,-24.05999973E-3,3.35999990,,,,,-24.05999973E-3,1.8399999,
,,,-24.04000051E-3,3.35999990,,,,,-24.04000051E-3,1.8800000,
,,,-24.01999943E-3,3.35999990,,,,,-24.01999943E-3,1.8800000,
,,,-24.00000021E-3,3.39999986,,,,,-24.00000021E-3,1.8399999,
,,,-23.97999913E-3,3.39999986,,,,,-23.97999913E-3,1.8800000,
,,,-23.95999990E-3,3.39999986,,,,,-23.95999990E-3,1.8800000,
,,,-23.94000068E-3,3.39999986,,,,,-23.94000068E-3,1.8800000,
,,,-23.91999960E-3,3.39999986,,,,,-23.91999960E-3,1.9200000,
,,,-23.90000038E-3,3.43999982,,,,,-23.90000038E-3,1.8800000,
,,,-23.87999929E-3,3.43999982,,,,,-23.87999929E-3,1.8800000,
,,,-23.86000007E-3,3.43999982,,,,,-23.86000007E-3,1.8800000,
,,,-23.84000085E-3,3.39999986,,,,,-23.84000085E-3,1.9200000,
,,,-23.81999977E-3,3.39999986,,,,,-23.81999977E-3,1.9200000,
,,,-23.80000055E-3,3.43999982,,,,,-23.80000055E-3,1.9200000,
,,,-23.77999946E-3,3.48000002,,,,,-23.77999946E-3,1.9200000,
,,,-23.76000024E-3,3.43999982,,,,,-23.76000024E-3,1.9200000,
,,,-23.73999916E-3,3.39999986,,,,,-23.73999916E-3,1.9599999,
,,,-23.71999994E-3,3.43999982,,,,,-23.71999994E-3,1.9599999,
,,,-23.70000072E-3,3.48000002,,,,,-23.70000072E-3,1.9200000,
,,,-23.67999963E-3,3.48000002,,,,,-23.67999963E-3,1.9200000,
,,,-23.66000041E-3,3.39999986,,,,,-23.66000041E-3,1.9599999,
,,,-23.63999933E-3,3.43999982,,,,,-23.63999933E-3,1.9599999,
,,,-23.62000011E-3,3.43999982,,,,,-23.62000011E-3,1.9599999,
,,,-23.60000089E-3,3.48000002,,,,,-23.60000089E-3,1.9599999,
,,,-23.57999980E-3,3.48000002,,,,,-23.57999980E-3,1.9200000,
,,,-23.56000058E-3,3.48000002,,,,,-23.56000058E-3,1.9200000,
,,,-23.53999950E-3,3.48000002,,,,,-23.53999950E-3,1.9599999,
,,,-23.52000028E-3,3.48000002,,,,,-23.52000028E-3,1.8800000,
,,,-23.49999920E-3,3.48000002,,,,,-23.49999920E-3,1.9200000,
,,,-23.47999997E-3,3.48000002,,,,,-23.47999997E-3,1.9200000,
,,,-23.46000075E-3,3.43999982,,,,,-23.46000075E-3,1.9200000,
,,,-23.43999967E-3,3.48000002,,,,,-23.43999967E-3,1.9200000,
,,,-23.42000045E-3,3.48000002,,,,,-23.42000045E-3,1.9200000,
,,,-23.39999937E-3,3.48000002,,,,,-23.39999937E-3,1.9200000,
,,,-23.38000014E-3,3.48000002,,,,,-23.38000014E-3,1.9200000,
,,,-23.35999906E-3,3.48000002,,,,,-23.35999906E-3,1.8800000,
,,,-23.33999984E-3,3.48000002,,,,,-23.33999984E-3,1.9200000,
,,,-23.32000062E-3,3.48000002,,,,,-23.32000062E-3,1.9200000,
,,,-23.29999954E-3,3.48000002,,,,,-23.29999954E-3,1.8800000,
,,,-23.28000031E-3,3.51999998,,,,,-23.28000031E-3,1.8800000,
,,,-23.25999923E-3,3.48000002,,,,,-23.25999923E-3,1.9200000,
,,,-23.24000001E-3,3.51999998,,,,,-23.24000001E-3,1.8800000,
,,,-23.22000079E-3,3.51999998,,,,,-23.22000079E-3,1.8399999,
,,,-23.19999970E-3,3.51999998,,,,,-23.19999970E-3,1.8800000,
,,,-23.18000048E-3,3.55999994,,,,,-23.18000048E-3,1.8800000,
,,,-23.15999940E-3,3.51999998,,,,,-23.15999940E-3,1.8800000,
,,,-23.14000018E-3,3.48000002,,,,,-23.14000018E-3,1.8800000,
,,,-23.11999910E-3,3.55999994,,,,,-23.11999910E-3,1.8399999,
,,,-23.09999987E-3,3.48000002,,,,,-23.09999987E-3,1.8800000,
,,,-23.08000065E-3,3.51999998,,,,,-23.08000065E-3,1.8399999,
,,,-23.05999957E-3,3.55999994,,,,,-23.05999957E-3,1.8399999,
,,,-23.04000035E-3,3.51999998,,,,,-23.04000035E-3,1.8399999,
,,,-23.01999927E-3,3.55999994,,,,,-23.01999927E-3,1.8399999,
,,,-23.00000004E-3,3.55999994,,,,,-23.00000004E-3,1.8399999,
,,,-22.98000082E-3,3.51999998,,,,,-22.98000082E-3,1.8399999,
,,,-22.95999974E-3,3.55999994,,,,,-22.95999974E-3,1.8399999,
,,,-22.94000052E-3,3.51999998,,,,,-22.94000052E-3,1.8000000,
,,,-22.91999944E-3,3.55999994,,,,,-22.91999944E-3,1.8399999,
,,,-22.90000021E-3,3.55999994,,,,,-22.90000021E-3,1.8000000,
,,,-22.87999913E-3,3.59999990,,,,,-22.87999913E-3,1.8000000,
,,,-22.85999991E-3,3.55999994,,,,,-22.85999991E-3,1.8000000,
,,,-22.84000069E-3,3.55999994,,,,,-22.84000069E-3,1.8000000,
,,,-22.81999961E-3,3.55999994,,,,,-22.81999961E-3,1.8000000,
,,,-22.80000038E-3,3.55999994,,,,,-22.80000038E-3,1.8000000,
,,,-22.77999930E-3,3.55999994,,,,,-22.77999930E-3,1.8000000,
,,,-22.76000008E-3,3.55999994,,,,,-22.76000008E-3,1.8000000,
,,,-22.74000086E-3,3.55999994,,,,,-22.74000086E-3,1.8000000,
,,,-22.71999978E-3,3.55999994,,,,,-22.71999978E-3,1.7600000,
,,,-22.70000055E-3,3.55999994,,,,,-22.70000055E-3,1.7600000,
,,,-22.67999947E-3,3.59999990,,,,,-22.67999947E-3,1.7600000,
,,,-22.66000025E-3,3.55999994,,,,,-22.66000025E-3,1.7600000,
,,,-22.63999917E-3,3.59999990,,,,,-22.63999917E-3,1.7600000,
,,,-22.61999995E-3,3.55999994,,,,,-22.61999995E-3,1.7600000,
,,,-22.60000072E-3,3.59999990,,,,,-22.60000072E-3,1.7600000,
,,,-22.57999964E-3,3.63999987,,,,,-22.57999964E-3,1.7600000,
,,,-22.56000042E-3,3.59999990,,,,,-22.56000042E-3,1.7199999,
,,,-22.53999934E-3,3.63999987,,,,,-22.53999934E-3,1.7199999,
,,,-22.52000012E-3,3.59999990,,,,,-22.52000012E-3,1.7199999,
,,,-22.50000089E-3,3.59999990,,,,,-22.50000089E-3,1.7199999,
,,,-22.47999981E-3,3.63999987,,,,,-22.47999981E-3,1.7199999,
,,,-22.46000059E-3,3.63999987,,,,,-22.46000059E-3,1.7199999,
,,,-22.43999951E-3,3.63999987,,,,,-22.43999951E-3,1.7199999,
,,,-22.42000028E-3,3.59999990,,,,,-22.42000028E-3,1.7600000,
,,,-22.39999920E-3,3.59999990,,,,,-22.39999920E-3,1.6799999,
,,,-22.37999998E-3,3.63999987,,,,,-22.37999998E-3,1.7600000,
,,,-22.36000076E-3,3.63999987,,,,,-22.36000076E-3,1.7199999,
